{
    "Message": "",
    "Global": {
    "NewConfirmed": 509804,
    "TotalConfirmed": 49825235,
    "NewDeaths": 7577,
    "TotalDeaths": 1250362,
    "NewRecovered": 298867,
    "TotalRecovered": 32772759
    },
    "Countries": [
    {
    "Country": "Afghanistan",
    "CountryCode": "AF",
    "Slug": "afghanistan",
    "NewConfirmed": 58,
    "TotalConfirmed": 42033,
    "NewDeaths": 2,
    "TotalDeaths": 1556,
    "NewRecovered": 6,
    "TotalRecovered": 34446,
    "Date": "2020-11-09T01:32:51Z",
    "Premium": {}
    },
    {
    "Country": "Albania",
    "CountryCode": "AL",
    "Slug": "albania",
    "NewConfirmed": 495,
    "TotalConfirmed": 23705,
    "NewDeaths": 8,
    "TotalDeaths": 557,
    "NewRecovered": 141,
    "TotalRecovered": 12002,
    "Date": "2020-11-09T01:32:51Z",
    "Premium": {}
    },
    {
    "Country": "Algeria",
    "CountryCode": "DZ",
    "Slug": "algeria",
    "NewConfirmed": 581,
    "TotalConfirmed": 61381,
    "NewDeaths": 12,
    "TotalDeaths": 2036,
    "NewRecovered": 273,
    "TotalRecovered": 41783,
    "Date": "2020-11-09T01:32:51Z",
    "Premium": {}
    },
    {
    "Country": "Andorra",
    "CountryCode": "AD",
    "Slug": "andorra",
    "NewConfirmed": 184,
    "TotalConfirmed": 5319,
    "NewDeaths": 0,
    "TotalDeaths": 75,
    "NewRecovered": 185,
    "TotalRecovered": 4043,
    "Date": "2020-11-09T01:32:51Z",
    "Premium": {}
    },
    {
    "Country": "Angola",
    "CountryCode": "AO",
    "Slug": "angola",
    "NewConfirmed": 112,
    "TotalConfirmed": 12335,
    "NewDeaths": 3,
    "TotalDeaths": 303,
    "NewRecovered": 21,
    "TotalRecovered": 5647,
    "Date": "2020-11-09T01:32:51Z",
    "Premium": {}
    },
    {
    "Country": "Antigua and Barbuda",
    "CountryCode": "AG",
    "Slug": "antigua-and-barbuda",
    "NewConfirmed": 1,
    "TotalConfirmed": 131,
    "NewDeaths": 0,
    "TotalDeaths": 3,
    "NewRecovered": 4,
    "TotalRecovered": 122,
    "Date": "2020-11-09T01:32:51Z",
    "Premium": {}
    },
    {
    "Country": "Argentina",
    "CountryCode": "AR",
    "Slug": "argentina",
    "NewConfirmed": 8037,
    "TotalConfirmed": 1236851,
    "NewDeaths": 212,
    "TotalDeaths": 33348,
    "NewRecovered": 11076,
    "TotalRecovered": 1053313,
    "Date": "2020-11-09T01:32:51Z",
    "Premium": {}
    },
    {
    "Country": "Armenia",
    "CountryCode": "AM",
    "Slug": "armenia",
    "NewConfirmed": 2476,
    "TotalConfirmed": 104249,
    "NewDeaths": 27,
    "TotalDeaths": 1533,
    "NewRecovered": 1476,
    "TotalRecovered": 63258,
    "Date": "2020-11-09T01:32:51Z",
    "Premium": {}
    },
    {
    "Country": "Australia",
    "CountryCode": "AU",
    "Slug": "australia",
    "NewConfirmed": 6,
    "TotalConfirmed": 27658,
    "NewDeaths": 0,
    "TotalDeaths": 907,
    "NewRecovered": 11,
    "TotalRecovered": 25451,
    "Date": "2020-11-09T01:32:51Z",
    "Premium": {}
    },
    {
    "Country": "Austria",
    "CountryCode": "AT",
    "Slug": "austria",
    "NewConfirmed": 8241,
    "TotalConfirmed": 147220,
    "NewDeaths": 37,
    "TotalDeaths": 1377,
    "NewRecovered": 4566,
    "TotalRecovered": 88273,
    "Date": "2020-11-09T01:32:51Z",
    "Premium": {}
    },
    {
    "Country": "Azerbaijan",
    "CountryCode": "AZ",
    "Slug": "azerbaijan",
    "NewConfirmed": 1410,
    "TotalConfirmed": 63748,
    "NewDeaths": 13,
    "TotalDeaths": 824,
    "NewRecovered": 779,
    "TotalRecovered": 48049,
    "Date": "2020-11-09T01:32:51Z",
    "Premium": {}
    },
    {
    "Country": "Bahamas",
    "CountryCode": "BS",
    "Slug": "bahamas",
    "NewConfirmed": 65,
    "TotalConfirmed": 6947,
    "NewDeaths": 2,
    "TotalDeaths": 152,
    "NewRecovered": 163,
    "TotalRecovered": 4942,
    "Date": "2020-11-09T01:32:51Z",
    "Premium": {}
    },
    {
    "Country": "Bahrain",
    "CountryCode": "BH",
    "Slug": "bahrain",
    "NewConfirmed": 241,
    "TotalConfirmed": 83264,
    "NewDeaths": 1,
    "TotalDeaths": 329,
    "NewRecovered": 237,
    "TotalRecovered": 80763,
    "Date": "2020-11-09T01:32:51Z",
    "Premium": {}
    },
    {
    "Country": "Bangladesh",
    "CountryCode": "BD",
    "Slug": "bangladesh",
    "NewConfirmed": 1289,
    "TotalConfirmed": 418764,
    "NewDeaths": 13,
    "TotalDeaths": 6049,
    "NewRecovered": 1541,
    "TotalRecovered": 336568,
    "Date": "2020-11-09T01:32:51Z",
    "Premium": {}
    },
    {
    "Country": "Barbados",
    "CountryCode": "BB",
    "Slug": "barbados",
    "NewConfirmed": 0,
    "TotalConfirmed": 242,
    "NewDeaths": 0,
    "TotalDeaths": 7,
    "NewRecovered": 0,
    "TotalRecovered": 228,
    "Date": "2020-11-09T01:32:51Z",
    "Premium": {}
    },
    {
    "Country": "Belarus",
    "CountryCode": "BY",
    "Slug": "belarus",
    "NewConfirmed": 997,
    "TotalConfirmed": 105283,
    "NewDeaths": 3,
    "TotalDeaths": 1004,
    "NewRecovered": 503,
    "TotalRecovered": 90058,
    "Date": "2020-11-09T01:32:51Z",
    "Premium": {}
    },
    {
    "Country": "Belgium",
    "CountryCode": "BE",
    "Slug": "belgium",
    "NewConfirmed": 6124,
    "TotalConfirmed": 494168,
    "NewDeaths": 199,
    "TotalDeaths": 12907,
    "NewRecovered": 744,
    "TotalRecovered": 29357,
    "Date": "2020-11-09T01:32:51Z",
    "Premium": {}
    },
    {
    "Country": "Belize",
    "CountryCode": "BZ",
    "Slug": "belize",
    "NewConfirmed": 60,
    "TotalConfirmed": 4076,
    "NewDeaths": 1,
    "TotalDeaths": 68,
    "NewRecovered": 23,
    "TotalRecovered": 2353,
    "Date": "2020-11-09T01:32:51Z",
    "Premium": {}
    },
    {
    "Country": "Benin",
    "CountryCode": "BJ",
    "Slug": "benin",
    "NewConfirmed": 0,
    "TotalConfirmed": 2745,
    "NewDeaths": 0,
    "TotalDeaths": 43,
    "NewRecovered": 0,
    "TotalRecovered": 2466,
    "Date": "2020-11-09T01:32:51Z",
    "Premium": {}
    },
    {
    "Country": "Bhutan",
    "CountryCode": "BT",
    "Slug": "bhutan",
    "NewConfirmed": 1,
    "TotalConfirmed": 359,
    "NewDeaths": 0,
    "TotalDeaths": 0,
    "NewRecovered": 0,
    "TotalRecovered": 338,
    "Date": "2020-11-09T01:32:51Z",
    "Premium": {}
    },
    {
    "Country": "Bolivia",
    "CountryCode": "BO",
    "Slug": "bolivia",
    "NewConfirmed": 84,
    "TotalConfirmed": 142427,
    "NewDeaths": 9,
    "TotalDeaths": 8790,
    "NewRecovered": 326,
    "TotalRecovered": 114225,
    "Date": "2020-11-09T01:32:51Z",
    "Premium": {}
    },
    {
    "Country": "Bosnia and Herzegovina",
    "CountryCode": "BA",
    "Slug": "bosnia-and-herzegovina",
    "NewConfirmed": 1785,
    "TotalConfirmed": 61212,
    "NewDeaths": 33,
    "TotalDeaths": 1490,
    "NewRecovered": 684,
    "TotalRecovered": 30654,
    "Date": "2020-11-09T01:32:51Z",
    "Premium": {}
    },
    {
    "Country": "Botswana",
    "CountryCode": "BW",
    "Slug": "botswana",
    "NewConfirmed": 0,
    "TotalConfirmed": 7835,
    "NewDeaths": 0,
    "TotalDeaths": 27,
    "NewRecovered": 0,
    "TotalRecovered": 5534,
    "Date": "2020-11-09T01:32:51Z",
    "Premium": {}
    },
    {
    "Country": "Brazil",
    "CountryCode": "BR",
    "Slug": "brazil",
    "NewConfirmed": 22380,
    "TotalConfirmed": 5653561,
    "NewDeaths": 254,
    "TotalDeaths": 162269,
    "NewRecovered": 20485,
    "TotalRecovered": 5138641,
    "Date": "2020-11-09T01:32:51Z",
    "Premium": {}
    },
    {
    "Country": "Brunei Darussalam",
    "CountryCode": "BN",
    "Slug": "brunei",
    "NewConfirmed": 0,
    "TotalConfirmed": 148,
    "NewDeaths": 0,
    "TotalDeaths": 3,
    "NewRecovered": 0,
    "TotalRecovered": 144,
    "Date": "2020-11-09T01:32:51Z",
    "Premium": {}
    },
    {
    "Country": "Bulgaria",
    "CountryCode": "BG",
    "Slug": "bulgaria",
    "NewConfirmed": 2301,
    "TotalConfirmed": 74485,
    "NewDeaths": 56,
    "TotalDeaths": 1632,
    "NewRecovered": 369,
    "TotalRecovered": 23805,
    "Date": "2020-11-09T01:32:51Z",
    "Premium": {}
    },
    {
    "Country": "Burkina Faso",
    "CountryCode": "BF",
    "Slug": "burkina-faso",
    "NewConfirmed": 3,
    "TotalConfirmed": 2565,
    "NewDeaths": 0,
    "TotalDeaths": 67,
    "NewRecovered": 4,
    "TotalRecovered": 2370,
    "Date": "2020-11-09T01:32:51Z",
    "Premium": {}
    },
    {
    "Country": "Burundi",
    "CountryCode": "BI",
    "Slug": "burundi",
    "NewConfirmed": 6,
    "TotalConfirmed": 612,
    "NewDeaths": 0,
    "TotalDeaths": 1,
    "NewRecovered": 0,
    "TotalRecovered": 511,
    "Date": "2020-11-09T01:32:51Z",
    "Premium": {}
    },
    {
    "Country": "Cambodia",
    "CountryCode": "KH",
    "Slug": "cambodia",
    "NewConfirmed": 1,
    "TotalConfirmed": 295,
    "NewDeaths": 0,
    "TotalDeaths": 0,
    "NewRecovered": 0,
    "TotalRecovered": 288,
    "Date": "2020-11-09T01:32:51Z",
    "Premium": {}
    },
    {
    "Country": "Cameroon",
    "CountryCode": "CM",
    "Slug": "cameroon",
    "NewConfirmed": 239,
    "TotalConfirmed": 22342,
    "NewDeaths": 0,
    "TotalDeaths": 429,
    "NewRecovered": 0,
    "TotalRecovered": 21151,
    "Date": "2020-11-09T01:32:51Z",
    "Premium": {}
    },
    {
    "Country": "Canada",
    "CountryCode": "CA",
    "Slug": "canada",
    "NewConfirmed": 4346,
    "TotalConfirmed": 263207,
    "NewDeaths": 54,
    "TotalDeaths": 10546,
    "NewRecovered": 1897,
    "TotalRecovered": 216338,
    "Date": "2020-11-09T01:32:51Z",
    "Premium": {}
    },
    {
    "Country": "Cape Verde",
    "CountryCode": "CV",
    "Slug": "cape-verde",
    "NewConfirmed": 67,
    "TotalConfirmed": 9291,
    "NewDeaths": 0,
    "TotalDeaths": 100,
    "NewRecovered": 68,
    "TotalRecovered": 8431,
    "Date": "2020-11-09T01:32:51Z",
    "Premium": {}
    },
    {
    "Country": "Central African Republic",
    "CountryCode": "CF",
    "Slug": "central-african-republic",
    "NewConfirmed": 13,
    "TotalConfirmed": 4879,
    "NewDeaths": 0,
    "TotalDeaths": 62,
    "NewRecovered": 0,
    "TotalRecovered": 1924,
    "Date": "2020-11-09T01:32:51Z",
    "Premium": {}
    },
    {
    "Country": "Chad",
    "CountryCode": "TD",
    "Slug": "chad",
    "NewConfirmed": 5,
    "TotalConfirmed": 1543,
    "NewDeaths": 0,
    "TotalDeaths": 99,
    "NewRecovered": 3,
    "TotalRecovered": 1365,
    "Date": "2020-11-09T01:32:51Z",
    "Premium": {}
    },
    {
    "Country": "Chile",
    "CountryCode": "CL",
    "Slug": "chile",
    "NewConfirmed": 1587,
    "TotalConfirmed": 519977,
    "NewDeaths": 49,
    "TotalDeaths": 14499,
    "NewRecovered": 1549,
    "TotalRecovered": 495852,
    "Date": "2020-11-09T01:32:51Z",
    "Premium": {}
    },
    {
    "Country": "China",
    "CountryCode": "CN",
    "Slug": "china",
    "NewConfirmed": 31,
    "TotalConfirmed": 91622,
    "NewDeaths": 0,
    "TotalDeaths": 4741,
    "NewRecovered": 43,
    "TotalRecovered": 86344,
    "Date": "2020-11-09T01:32:51Z",
    "Premium": {}
    },
    {
    "Country": "Colombia",
    "CountryCode": "CO",
    "Slug": "colombia",
    "NewConfirmed": 8714,
    "TotalConfirmed": 1136447,
    "NewDeaths": 190,
    "TotalDeaths": 32595,
    "NewRecovered": 8819,
    "TotalRecovered": 1029082,
    "Date": "2020-11-09T01:32:51Z",
    "Premium": {}
    },
    {
    "Country": "Comoros",
    "CountryCode": "KM",
    "Slug": "comoros",
    "NewConfirmed": 6,
    "TotalConfirmed": 563,
    "NewDeaths": 0,
    "TotalDeaths": 7,
    "NewRecovered": 7,
    "TotalRecovered": 532,
    "Date": "2020-11-09T01:32:51Z",
    "Premium": {}
    },
    {
    "Country": "Congo (Brazzaville)",
    "CountryCode": "CG",
    "Slug": "congo-brazzaville",
    "NewConfirmed": 0,
    "TotalConfirmed": 5379,
    "NewDeaths": 0,
    "TotalDeaths": 92,
    "NewRecovered": 0,
    "TotalRecovered": 3887,
    "Date": "2020-11-09T01:32:51Z",
    "Premium": {}
    },
    {
    "Country": "Congo (Kinshasa)",
    "CountryCode": "CD",
    "Slug": "congo-kinshasa",
    "NewConfirmed": 33,
    "TotalConfirmed": 11550,
    "NewDeaths": 1,
    "TotalDeaths": 316,
    "NewRecovered": 0,
    "TotalRecovered": 10838,
    "Date": "2020-11-09T01:32:51Z",
    "Premium": {}
    },
    {
    "Country": "Costa Rica",
    "CountryCode": "CR",
    "Slug": "costa-rica",
    "NewConfirmed": 946,
    "TotalConfirmed": 116363,
    "NewDeaths": 11,
    "TotalDeaths": 1464,
    "NewRecovered": 698,
    "TotalRecovered": 71119,
    "Date": "2020-11-09T01:32:51Z",
    "Premium": {}
    },
    {
    "Country": "Croatia",
    "CountryCode": "HR",
    "Slug": "croatia",
    "NewConfirmed": 2399,
    "TotalConfirmed": 64704,
    "NewDeaths": 35,
    "TotalDeaths": 752,
    "NewRecovered": 2389,
    "TotalRecovered": 48410,
    "Date": "2020-11-09T01:32:51Z",
    "Premium": {}
    },
    {
    "Country": "Cuba",
    "CountryCode": "CU",
    "Slug": "cuba",
    "NewConfirmed": 39,
    "TotalConfirmed": 7267,
    "NewDeaths": 0,
    "TotalDeaths": 130,
    "NewRecovered": 40,
    "TotalRecovered": 6582,
    "Date": "2020-11-09T01:32:51Z",
    "Premium": {}
    },
    {
    "Country": "Cyprus",
    "CountryCode": "CY",
    "Slug": "cyprus",
    "NewConfirmed": 314,
    "TotalConfirmed": 5871,
    "NewDeaths": 8,
    "TotalDeaths": 35,
    "NewRecovered": 0,
    "TotalRecovered": 1882,
    "Date": "2020-11-09T01:32:51Z",
    "Premium": {}
    },
    {
    "Country": "Czech Republic",
    "CountryCode": "CZ",
    "Slug": "czech-republic",
    "NewConfirmed": 7723,
    "TotalConfirmed": 411220,
    "NewDeaths": 197,
    "TotalDeaths": 4681,
    "NewRecovered": 22875,
    "TotalRecovered": 237757,
    "Date": "2020-11-09T01:32:51Z",
    "Premium": {}
    },
    {
    "Country": "Côte d'Ivoire",
    "CountryCode": "CI",
    "Slug": "cote-divoire",
    "NewConfirmed": 12,
    "TotalConfirmed": 20813,
    "NewDeaths": 0,
    "TotalDeaths": 126,
    "NewRecovered": 12,
    "TotalRecovered": 20489,
    "Date": "2020-11-09T01:32:51Z",
    "Premium": {}
    },
    {
    "Country": "Denmark",
    "CountryCode": "DK",
    "Slug": "denmark",
    "NewConfirmed": 1050,
    "TotalConfirmed": 54742,
    "NewDeaths": 2,
    "TotalDeaths": 740,
    "NewRecovered": 864,
    "TotalRecovered": 40000,
    "Date": "2020-11-09T01:32:51Z",
    "Premium": {}
    },
    {
    "Country": "Djibouti",
    "CountryCode": "DJ",
    "Slug": "djibouti",
    "NewConfirmed": 1,
    "TotalConfirmed": 5605,
    "NewDeaths": 0,
    "TotalDeaths": 61,
    "NewRecovered": 4,
    "TotalRecovered": 5485,
    "Date": "2020-11-09T01:32:51Z",
    "Premium": {}
    },
    {
    "Country": "Dominica",
    "CountryCode": "DM",
    "Slug": "dominica",
    "NewConfirmed": 6,
    "TotalConfirmed": 63,
    "NewDeaths": 0,
    "TotalDeaths": 0,
    "NewRecovered": 0,
    "TotalRecovered": 35,
    "Date": "2020-11-09T01:32:51Z",
    "Premium": {}
    },
    {
    "Country": "Dominican Republic",
    "CountryCode": "DO",
    "Slug": "dominican-republic",
    "NewConfirmed": 345,
    "TotalConfirmed": 129645,
    "NewDeaths": 2,
    "TotalDeaths": 2263,
    "NewRecovered": 542,
    "TotalRecovered": 107580,
    "Date": "2020-11-09T01:32:51Z",
    "Premium": {}
    },
    {
    "Country": "Ecuador",
    "CountryCode": "EC",
    "Slug": "ecuador",
    "NewConfirmed": 978,
    "TotalConfirmed": 173486,
    "NewDeaths": 54,
    "TotalDeaths": 12815,
    "NewRecovered": 0,
    "TotalRecovered": 149048,
    "Date": "2020-11-09T01:32:51Z",
    "Premium": {}
    },
    {
    "Country": "Egypt",
    "CountryCode": "EG",
    "Slug": "egypt",
    "NewConfirmed": 208,
    "TotalConfirmed": 108962,
    "NewDeaths": 12,
    "TotalDeaths": 6355,
    "NewRecovered": 133,
    "TotalRecovered": 100239,
    "Date": "2020-11-09T01:32:51Z",
    "Premium": {}
    },
    {
    "Country": "El Salvador",
    "CountryCode": "SV",
    "Slug": "el-salvador",
    "NewConfirmed": 179,
    "TotalConfirmed": 35145,
    "NewDeaths": 4,
    "TotalDeaths": 1006,
    "NewRecovered": 231,
    "TotalRecovered": 31172,
    "Date": "2020-11-09T01:32:51Z",
    "Premium": {}
    },
    {
    "Country": "Equatorial Guinea",
    "CountryCode": "GQ",
    "Slug": "equatorial-guinea",
    "NewConfirmed": 0,
    "TotalConfirmed": 5092,
    "NewDeaths": 0,
    "TotalDeaths": 85,
    "NewRecovered": 0,
    "TotalRecovered": 4968,
    "Date": "2020-11-09T01:32:51Z",
    "Premium": {}
    },
    {
    "Country": "Eritrea",
    "CountryCode": "ER",
    "Slug": "eritrea",
    "NewConfirmed": 7,
    "TotalConfirmed": 491,
    "NewDeaths": 0,
    "TotalDeaths": 0,
    "NewRecovered": 9,
    "TotalRecovered": 438,
    "Date": "2020-11-09T01:32:51Z",
    "Premium": {}
    },
    {
    "Country": "Estonia",
    "CountryCode": "EE",
    "Slug": "estonia",
    "NewConfirmed": 228,
    "TotalConfirmed": 5933,
    "NewDeaths": 0,
    "TotalDeaths": 73,
    "NewRecovered": 81,
    "TotalRecovered": 4184,
    "Date": "2020-11-09T01:32:51Z",
    "Premium": {}
    },
    {
    "Country": "Ethiopia",
    "CountryCode": "ET",
    "Slug": "ethiopia",
    "NewConfirmed": 455,
    "TotalConfirmed": 99201,
    "NewDeaths": 6,
    "TotalDeaths": 1518,
    "NewRecovered": 845,
    "TotalRecovered": 58948,
    "Date": "2020-11-09T01:32:51Z",
    "Premium": {}
    },
    {
    "Country": "Fiji",
    "CountryCode": "FJ",
    "Slug": "fiji",
    "NewConfirmed": 0,
    "TotalConfirmed": 34,
    "NewDeaths": 0,
    "TotalDeaths": 2,
    "NewRecovered": 0,
    "TotalRecovered": 31,
    "Date": "2020-11-09T01:32:51Z",
    "Premium": {}
    },
    {
    "Country": "Finland",
    "CountryCode": "FI",
    "Slug": "finland",
    "NewConfirmed": 0,
    "TotalConfirmed": 17385,
    "NewDeaths": 0,
    "TotalDeaths": 362,
    "NewRecovered": 0,
    "TotalRecovered": 12700,
    "Date": "2020-11-09T01:32:51Z",
    "Premium": {}
    },
    {
    "Country": "France",
    "CountryCode": "FR",
    "Slug": "france",
    "NewConfirmed": 57,
    "TotalConfirmed": 1709773,
    "NewDeaths": 304,
    "TotalDeaths": 40220,
    "NewRecovered": 1609,
    "TotalRecovered": 133419,
    "Date": "2020-11-09T01:32:51Z",
    "Premium": {}
    },
    {
    "Country": "Gabon",
    "CountryCode": "GA",
    "Slug": "gabon",
    "NewConfirmed": 0,
    "TotalConfirmed": 9022,
    "NewDeaths": 0,
    "TotalDeaths": 55,
    "NewRecovered": 0,
    "TotalRecovered": 8878,
    "Date": "2020-11-09T01:32:51Z",
    "Premium": {}
    },
    {
    "Country": "Gambia",
    "CountryCode": "GM",
    "Slug": "gambia",
    "NewConfirmed": 0,
    "TotalConfirmed": 3684,
    "NewDeaths": 0,
    "TotalDeaths": 121,
    "NewRecovered": 0,
    "TotalRecovered": 3527,
    "Date": "2020-11-09T01:32:51Z",
    "Premium": {}
    },
    {
    "Country": "Georgia",
    "CountryCode": "GE",
    "Slug": "georgia",
    "NewConfirmed": 2859,
    "TotalConfirmed": 54852,
    "NewDeaths": 18,
    "TotalDeaths": 441,
    "NewRecovered": 2754,
    "TotalRecovered": 39773,
    "Date": "2020-11-09T01:32:51Z",
    "Premium": {}
    },
    {
    "Country": "Germany",
    "CountryCode": "DE",
    "Slug": "germany",
    "NewConfirmed": 14122,
    "TotalConfirmed": 668114,
    "NewDeaths": 66,
    "TotalDeaths": 11306,
    "NewRecovered": 7675,
    "TotalRecovered": 413484,
    "Date": "2020-11-09T01:32:51Z",
    "Premium": {}
    },
    {
    "Country": "Ghana",
    "CountryCode": "GH",
    "Slug": "ghana",
    "NewConfirmed": 116,
    "TotalConfirmed": 48904,
    "NewDeaths": 0,
    "TotalDeaths": 320,
    "NewRecovered": 90,
    "TotalRecovered": 47611,
    "Date": "2020-11-09T01:32:51Z",
    "Premium": {}
    },
    {
    "Country": "Greece",
    "CountryCode": "GR",
    "Slug": "greece",
    "NewConfirmed": 2555,
    "TotalConfirmed": 54809,
    "NewDeaths": 34,
    "TotalDeaths": 749,
    "NewRecovered": 0,
    "TotalRecovered": 23074,
    "Date": "2020-11-09T01:32:51Z",
    "Premium": {}
    },
    {
    "Country": "Grenada",
    "CountryCode": "GD",
    "Slug": "grenada",
    "NewConfirmed": 0,
    "TotalConfirmed": 30,
    "NewDeaths": 0,
    "TotalDeaths": 0,
    "NewRecovered": 0,
    "TotalRecovered": 27,
    "Date": "2020-11-09T01:32:51Z",
    "Premium": {}
    },
    {
    "Country": "Guatemala",
    "CountryCode": "GT",
    "Slug": "guatemala",
    "NewConfirmed": 548,
    "TotalConfirmed": 111050,
    "NewDeaths": 17,
    "TotalDeaths": 3811,
    "NewRecovered": 489,
    "TotalRecovered": 100808,
    "Date": "2020-11-09T01:32:51Z",
    "Premium": {}
    },
    {
    "Country": "Guinea",
    "CountryCode": "GN",
    "Slug": "guinea",
    "NewConfirmed": 37,
    "TotalConfirmed": 12400,
    "NewDeaths": 0,
    "TotalDeaths": 73,
    "NewRecovered": 29,
    "TotalRecovered": 10780,
    "Date": "2020-11-09T01:32:51Z",
    "Premium": {}
    },
    {
    "Country": "Guinea-Bissau",
    "CountryCode": "GW",
    "Slug": "guinea-bissau",
    "NewConfirmed": 0,
    "TotalConfirmed": 2414,
    "NewDeaths": 0,
    "TotalDeaths": 42,
    "NewRecovered": 0,
    "TotalRecovered": 1862,
    "Date": "2020-11-09T01:32:51Z",
    "Premium": {}
    },
    {
    "Country": "Guyana",
    "CountryCode": "GY",
    "Slug": "guyana",
    "NewConfirmed": 27,
    "TotalConfirmed": 4484,
    "NewDeaths": 1,
    "TotalDeaths": 134,
    "NewRecovered": 44,
    "TotalRecovered": 3511,
    "Date": "2020-11-09T01:32:51Z",
    "Premium": {}
    },
    {
    "Country": "Haiti",
    "CountryCode": "HT",
    "Slug": "haiti",
    "NewConfirmed": 0,
    "TotalConfirmed": 9127,
    "NewDeaths": 0,
    "TotalDeaths": 232,
    "NewRecovered": 0,
    "TotalRecovered": 7618,
    "Date": "2020-11-09T01:32:51Z",
    "Premium": {}
    },
    {
    "Country": "Holy See (Vatican City State)",
    "CountryCode": "VA",
    "Slug": "holy-see-vatican-city-state",
    "NewConfirmed": 0,
    "TotalConfirmed": 27,
    "NewDeaths": 0,
    "TotalDeaths": 0,
    "NewRecovered": 0,
    "TotalRecovered": 15,
    "Date": "2020-11-09T01:32:51Z",
    "Premium": {}
    },
    {
    "Country": "Honduras",
    "CountryCode": "HN",
    "Slug": "honduras",
    "NewConfirmed": 465,
    "TotalConfirmed": 100041,
    "NewDeaths": 4,
    "TotalDeaths": 2745,
    "NewRecovered": 206,
    "TotalRecovered": 42815,
    "Date": "2020-11-09T01:32:51Z",
    "Premium": {}
    },
    {
    "Country": "Hungary",
    "CountryCode": "HU",
    "Slug": "hungary",
    "NewConfirmed": 5318,
    "TotalConfirmed": 104943,
    "NewDeaths": 107,
    "TotalDeaths": 2357,
    "NewRecovered": 1634,
    "TotalRecovered": 24847,
    "Date": "2020-11-09T01:32:51Z",
    "Premium": {}
    },
    {
    "Country": "Iceland",
    "CountryCode": "IS",
    "Slug": "iceland",
    "NewConfirmed": 24,
    "TotalConfirmed": 5063,
    "NewDeaths": 0,
    "TotalDeaths": 18,
    "NewRecovered": 49,
    "TotalRecovered": 4335,
    "Date": "2020-11-09T01:32:51Z",
    "Premium": {}
    },
    {
    "Country": "India",
    "CountryCode": "IN",
    "Slug": "india",
    "NewConfirmed": 45674,
    "TotalConfirmed": 8507754,
    "NewDeaths": 559,
    "TotalDeaths": 126121,
    "NewRecovered": 49082,
    "TotalRecovered": 7868968,
    "Date": "2020-11-09T01:32:51Z",
    "Premium": {}
    },
    {
    "Country": "Indonesia",
    "CountryCode": "ID",
    "Slug": "indonesia",
    "NewConfirmed": 4262,
    "TotalConfirmed": 433836,
    "NewDeaths": 98,
    "TotalDeaths": 14540,
    "NewRecovered": 3712,
    "TotalRecovered": 364417,
    "Date": "2020-11-09T01:32:51Z",
    "Premium": {}
    },
    {
    "Country": "Iran, Islamic Republic of",
    "CountryCode": "IR",
    "Slug": "iran",
    "NewConfirmed": 9450,
    "TotalConfirmed": 673250,
    "NewDeaths": 423,
    "TotalDeaths": 37832,
    "NewRecovered": 5201,
    "TotalRecovered": 515153,
    "Date": "2020-11-09T01:32:51Z",
    "Premium": {}
    },
    {
    "Country": "Iraq",
    "CountryCode": "IQ",
    "Slug": "iraq",
    "NewConfirmed": 2880,
    "TotalConfirmed": 496019,
    "NewDeaths": 39,
    "TotalDeaths": 11283,
    "NewRecovered": 2660,
    "TotalRecovered": 425926,
    "Date": "2020-11-09T01:32:51Z",
    "Premium": {}
    },
    {
    "Country": "Ireland",
    "CountryCode": "IE",
    "Slug": "ireland",
    "NewConfirmed": 317,
    "TotalConfirmed": 64855,
    "NewDeaths": 5,
    "TotalDeaths": 1945,
    "NewRecovered": 0,
    "TotalRecovered": 23364,
    "Date": "2020-11-09T01:32:51Z",
    "Premium": {}
    },
    {
    "Country": "Israel",
    "CountryCode": "IL",
    "Slug": "israel",
    "NewConfirmed": 547,
    "TotalConfirmed": 318949,
    "NewDeaths": 20,
    "TotalDeaths": 2664,
    "NewRecovered": 583,
    "TotalRecovered": 307473,
    "Date": "2020-11-09T01:32:51Z",
    "Premium": {}
    },
    {
    "Country": "Italy",
    "CountryCode": "IT",
    "Slug": "italy",
    "NewConfirmed": 39809,
    "TotalConfirmed": 902490,
    "NewDeaths": 425,
    "TotalDeaths": 41063,
    "NewRecovered": 5966,
    "TotalRecovered": 328891,
    "Date": "2020-11-09T01:32:51Z",
    "Premium": {}
    },
    {
    "Country": "Jamaica",
    "CountryCode": "JM",
    "Slug": "jamaica",
    "NewConfirmed": 46,
    "TotalConfirmed": 9472,
    "NewDeaths": 0,
    "TotalDeaths": 218,
    "NewRecovered": 77,
    "TotalRecovered": 4878,
    "Date": "2020-11-09T01:32:51Z",
    "Premium": {}
    },
    {
    "Country": "Japan",
    "CountryCode": "JP",
    "Slug": "japan",
    "NewConfirmed": 1303,
    "TotalConfirmed": 107439,
    "NewDeaths": 5,
    "TotalDeaths": 1815,
    "NewRecovered": 693,
    "TotalRecovered": 95703,
    "Date": "2020-11-09T01:32:51Z",
    "Premium": {}
    },
    {
    "Country": "Jordan",
    "CountryCode": "JO",
    "Slug": "jordan",
    "NewConfirmed": 3554,
    "TotalConfirmed": 104802,
    "NewDeaths": 45,
    "TotalDeaths": 1181,
    "NewRecovered": 123,
    "TotalRecovered": 8629,
    "Date": "2020-11-09T01:32:51Z",
    "Premium": {}
    },
    {
    "Country": "Kazakhstan",
    "CountryCode": "KZ",
    "Slug": "kazakhstan",
    "NewConfirmed": 723,
    "TotalConfirmed": 116162,
    "NewDeaths": 0,
    "TotalDeaths": 1857,
    "NewRecovered": 138,
    "TotalRecovered": 107668,
    "Date": "2020-11-09T01:32:51Z",
    "Premium": {}
    },
    {
    "Country": "Kenya",
    "CountryCode": "KE",
    "Slug": "kenya",
    "NewConfirmed": 1065,
    "TotalConfirmed": 61769,
    "NewDeaths": 10,
    "TotalDeaths": 1103,
    "NewRecovered": 888,
    "TotalRecovered": 41019,
    "Date": "2020-11-09T01:32:51Z",
    "Premium": {}
    },
    {
    "Country": "Korea (South)",
    "CountryCode": "KR",
    "Slug": "korea-south",
    "NewConfirmed": 143,
    "TotalConfirmed": 27427,
    "NewDeaths": 1,
    "TotalDeaths": 478,
    "NewRecovered": 58,
    "TotalRecovered": 24968,
    "Date": "2020-11-09T01:32:51Z",
    "Premium": {}
    },
    {
    "Country": "Kuwait",
    "CountryCode": "KW",
    "Slug": "kuwait",
    "NewConfirmed": 742,
    "TotalConfirmed": 131205,
    "NewDeaths": 4,
    "TotalDeaths": 808,
    "NewRecovered": 626,
    "TotalRecovered": 121889,
    "Date": "2020-11-09T01:32:51Z",
    "Premium": {}
    },
    {
    "Country": "Kyrgyzstan",
    "CountryCode": "KG",
    "Slug": "kyrgyzstan",
    "NewConfirmed": 556,
    "TotalConfirmed": 62304,
    "NewDeaths": 2,
    "TotalDeaths": 1172,
    "NewRecovered": 551,
    "TotalRecovered": 53406,
    "Date": "2020-11-09T01:32:51Z",
    "Premium": {}
    },
    {
    "Country": "Lao PDR",
    "CountryCode": "LA",
    "Slug": "lao-pdr",
    "NewConfirmed": 0,
    "TotalConfirmed": 24,
    "NewDeaths": 0,
    "TotalDeaths": 0,
    "NewRecovered": 0,
    "TotalRecovered": 23,
    "Date": "2020-11-09T01:32:51Z",
    "Premium": {}
    },
    {
    "Country": "Latvia",
    "CountryCode": "LV",
    "Slug": "latvia",
    "NewConfirmed": 404,
    "TotalConfirmed": 7880,
    "NewDeaths": 1,
    "TotalDeaths": 96,
    "NewRecovered": 0,
    "TotalRecovered": 1444,
    "Date": "2020-11-09T01:32:51Z",
    "Premium": {}
    },
    {
    "Country": "Lebanon",
    "CountryCode": "LB",
    "Slug": "lebanon",
    "NewConfirmed": 1769,
    "TotalConfirmed": 93097,
    "NewDeaths": 13,
    "TotalDeaths": 713,
    "NewRecovered": 782,
    "TotalRecovered": 46602,
    "Date": "2020-11-09T01:32:51Z",
    "Premium": {}
    },
    {
    "Country": "Lesotho",
    "CountryCode": "LS",
    "Slug": "lesotho",
    "NewConfirmed": 0,
    "TotalConfirmed": 1967,
    "NewDeaths": 0,
    "TotalDeaths": 44,
    "NewRecovered": 0,
    "TotalRecovered": 1024,
    "Date": "2020-11-09T01:32:51Z",
    "Premium": {}
    },
    {
    "Country": "Liberia",
    "CountryCode": "LR",
    "Slug": "liberia",
    "NewConfirmed": 0,
    "TotalConfirmed": 1442,
    "NewDeaths": 0,
    "TotalDeaths": 82,
    "NewRecovered": 0,
    "TotalRecovered": 1310,
    "Date": "2020-11-09T01:32:51Z",
    "Premium": {}
    },
    {
    "Country": "Libya",
    "CountryCode": "LY",
    "Slug": "libya",
    "NewConfirmed": 595,
    "TotalConfirmed": 67039,
    "NewDeaths": 5,
    "TotalDeaths": 920,
    "NewRecovered": 619,
    "TotalRecovered": 39243,
    "Date": "2020-11-09T01:32:51Z",
    "Premium": {}
    },
    {
    "Country": "Liechtenstein",
    "CountryCode": "LI",
    "Slug": "liechtenstein",
    "NewConfirmed": 24,
    "TotalConfirmed": 765,
    "NewDeaths": 0,
    "TotalDeaths": 3,
    "NewRecovered": 0,
    "TotalRecovered": 481,
    "Date": "2020-11-09T01:32:51Z",
    "Premium": {}
    },
    {
    "Country": "Lithuania",
    "CountryCode": "LT",
    "Slug": "lithuania",
    "NewConfirmed": 1972,
    "TotalConfirmed": 22719,
    "NewDeaths": 11,
    "TotalDeaths": 203,
    "NewRecovered": 161,
    "TotalRecovered": 5615,
    "Date": "2020-11-09T01:32:51Z",
    "Premium": {}
    },
    {
    "Country": "Luxembourg",
    "CountryCode": "LU",
    "Slug": "luxembourg",
    "NewConfirmed": 0,
    "TotalConfirmed": 21806,
    "NewDeaths": 0,
    "TotalDeaths": 180,
    "NewRecovered": 0,
    "TotalRecovered": 12094,
    "Date": "2020-11-09T01:32:51Z",
    "Premium": {}
    },
    {
    "Country": "Macao, SAR China",
    "CountryCode": "MO",
    "Slug": "macao-sar-china",
    "NewConfirmed": 0,
    "TotalConfirmed": 0,
    "NewDeaths": 0,
    "TotalDeaths": 0,
    "NewRecovered": 0,
    "TotalRecovered": 0,
    "Date": "2020-11-09T01:32:51Z",
    "Premium": {}
    },
    {
    "Country": "Macedonia, Republic of",
    "CountryCode": "MK",
    "Slug": "macedonia",
    "NewConfirmed": 1283,
    "TotalConfirmed": 38782,
    "NewDeaths": 14,
    "TotalDeaths": 1110,
    "NewRecovered": 176,
    "TotalRecovered": 23011,
    "Date": "2020-11-09T01:32:51Z",
    "Premium": {}
    },
    {
    "Country": "Madagascar",
    "CountryCode": "MG",
    "Slug": "madagascar",
    "NewConfirmed": 0,
    "TotalConfirmed": 17111,
    "NewDeaths": 0,
    "TotalDeaths": 244,
    "NewRecovered": 0,
    "TotalRecovered": 16409,
    "Date": "2020-11-09T01:32:51Z",
    "Premium": {}
    },
    {
    "Country": "Malawi",
    "CountryCode": "MW",
    "Slug": "malawi",
    "NewConfirmed": 6,
    "TotalConfirmed": 5948,
    "NewDeaths": 0,
    "TotalDeaths": 184,
    "NewRecovered": 0,
    "TotalRecovered": 5346,
    "Date": "2020-11-09T01:32:51Z",
    "Premium": {}
    },
    {
    "Country": "Malaysia",
    "CountryCode": "MY",
    "Slug": "malaysia",
    "NewConfirmed": 1168,
    "TotalConfirmed": 39357,
    "NewDeaths": 3,
    "TotalDeaths": 282,
    "NewRecovered": 1029,
    "TotalRecovered": 27409,
    "Date": "2020-11-09T01:32:51Z",
    "Premium": {}
    },
    {
    "Country": "Maldives",
    "CountryCode": "MV",
    "Slug": "maldives",
    "NewConfirmed": 30,
    "TotalConfirmed": 11962,
    "NewDeaths": 0,
    "TotalDeaths": 39,
    "NewRecovered": 25,
    "TotalRecovered": 11066,
    "Date": "2020-11-09T01:32:51Z",
    "Premium": {}
    },
    {
    "Country": "Mali",
    "CountryCode": "ML",
    "Slug": "mali",
    "NewConfirmed": 19,
    "TotalConfirmed": 3676,
    "NewDeaths": 0,
    "TotalDeaths": 137,
    "NewRecovered": 5,
    "TotalRecovered": 2822,
    "Date": "2020-11-09T01:32:51Z",
    "Premium": {}
    },
    {
    "Country": "Malta",
    "CountryCode": "MT",
    "Slug": "malta",
    "NewConfirmed": 146,
    "TotalConfirmed": 7039,
    "NewDeaths": 1,
    "TotalDeaths": 74,
    "NewRecovered": 168,
    "TotalRecovered": 5000,
    "Date": "2020-11-09T01:32:51Z",
    "Premium": {}
    },
    {
    "Country": "Marshall Islands",
    "CountryCode": "MH",
    "Slug": "marshall-islands",
    "NewConfirmed": 0,
    "TotalConfirmed": 1,
    "NewDeaths": 0,
    "TotalDeaths": 0,
    "NewRecovered": 0,
    "TotalRecovered": 0,
    "Date": "2020-11-09T01:32:51Z",
    "Premium": {}
    },
    {
    "Country": "Mauritania",
    "CountryCode": "MR",
    "Slug": "mauritania",
    "NewConfirmed": 10,
    "TotalConfirmed": 7814,
    "NewDeaths": 0,
    "TotalDeaths": 165,
    "NewRecovered": 4,
    "TotalRecovered": 7473,
    "Date": "2020-11-09T01:32:51Z",
    "Premium": {}
    },
    {
    "Country": "Mauritius",
    "CountryCode": "MU",
    "Slug": "mauritius",
    "NewConfirmed": 0,
    "TotalConfirmed": 453,
    "NewDeaths": 0,
    "TotalDeaths": 10,
    "NewRecovered": 0,
    "TotalRecovered": 416,
    "Date": "2020-11-09T01:32:51Z",
    "Premium": {}
    },
    {
    "Country": "Mexico",
    "CountryCode": "MX",
    "Slug": "mexico",
    "NewConfirmed": 6810,
    "TotalConfirmed": 961938,
    "NewDeaths": 485,
    "TotalDeaths": 94808,
    "NewRecovered": 4103,
    "TotalRecovered": 816659,
    "Date": "2020-11-09T01:32:51Z",
    "Premium": {}
    },
    {
    "Country": "Moldova",
    "CountryCode": "MD",
    "Slug": "moldova",
    "NewConfirmed": 1174,
    "TotalConfirmed": 81675,
    "NewDeaths": 9,
    "TotalDeaths": 1891,
    "NewRecovered": 1094,
    "TotalRecovered": 61314,
    "Date": "2020-11-09T01:32:51Z",
    "Premium": {}
    },
    {
    "Country": "Monaco",
    "CountryCode": "MC",
    "Slug": "monaco",
    "NewConfirmed": 29,
    "TotalConfirmed": 483,
    "NewDeaths": 0,
    "TotalDeaths": 2,
    "NewRecovered": 0,
    "TotalRecovered": 331,
    "Date": "2020-11-09T01:32:51Z",
    "Premium": {}
    },
    {
    "Country": "Mongolia",
    "CountryCode": "MN",
    "Slug": "mongolia",
    "NewConfirmed": 0,
    "TotalConfirmed": 357,
    "NewDeaths": 0,
    "TotalDeaths": 0,
    "NewRecovered": 0,
    "TotalRecovered": 314,
    "Date": "2020-11-09T01:32:51Z",
    "Premium": {}
    },
    {
    "Country": "Montenegro",
    "CountryCode": "ME",
    "Slug": "montenegro",
    "NewConfirmed": 300,
    "TotalConfirmed": 22379,
    "NewDeaths": 5,
    "TotalDeaths": 333,
    "NewRecovered": 250,
    "TotalRecovered": 15544,
    "Date": "2020-11-09T01:32:51Z",
    "Premium": {}
    },
    {
    "Country": "Morocco",
    "CountryCode": "MA",
    "Slug": "morocco",
    "NewConfirmed": 5836,
    "TotalConfirmed": 252185,
    "NewDeaths": 70,
    "TotalDeaths": 4197,
    "NewRecovered": 4602,
    "TotalRecovered": 205556,
    "Date": "2020-11-09T01:32:51Z",
    "Premium": {}
    },
    {
    "Country": "Mozambique",
    "CountryCode": "MZ",
    "Slug": "mozambique",
    "NewConfirmed": 92,
    "TotalConfirmed": 13577,
    "NewDeaths": 0,
    "TotalDeaths": 99,
    "NewRecovered": 306,
    "TotalRecovered": 11581,
    "Date": "2020-11-09T01:32:51Z",
    "Premium": {}
    },
    {
    "Country": "Myanmar",
    "CountryCode": "MM",
    "Slug": "myanmar",
    "NewConfirmed": 1071,
    "TotalConfirmed": 60348,
    "NewDeaths": 20,
    "TotalDeaths": 1396,
    "NewRecovered": 1389,
    "TotalRecovered": 44666,
    "Date": "2020-11-09T01:32:51Z",
    "Premium": {}
    },
    {
    "Country": "Namibia",
    "CountryCode": "NA",
    "Slug": "namibia",
    "NewConfirmed": 27,
    "TotalConfirmed": 13170,
    "NewDeaths": 1,
    "TotalDeaths": 134,
    "NewRecovered": 24,
    "TotalRecovered": 11602,
    "Date": "2020-11-09T01:32:51Z",
    "Premium": {}
    },
    {
    "Country": "Nepal",
    "CountryCode": "NP",
    "Slug": "nepal",
    "NewConfirmed": 2753,
    "TotalConfirmed": 191636,
    "NewDeaths": 17,
    "TotalDeaths": 1087,
    "NewRecovered": 2206,
    "TotalRecovered": 155114,
    "Date": "2020-11-09T01:32:51Z",
    "Premium": {}
    },
    {
    "Country": "Netherlands",
    "CountryCode": "NL",
    "Slug": "netherlands",
    "NewConfirmed": 6671,
    "TotalConfirmed": 404401,
    "NewDeaths": 73,
    "TotalDeaths": 7960,
    "NewRecovered": 0,
    "TotalRecovered": 0,
    "Date": "2020-11-09T01:32:51Z",
    "Premium": {}
    },
    {
    "Country": "New Zealand",
    "CountryCode": "NZ",
    "Slug": "new-zealand",
    "NewConfirmed": 6,
    "TotalConfirmed": 1982,
    "NewDeaths": 0,
    "TotalDeaths": 25,
    "NewRecovered": 1,
    "TotalRecovered": 1909,
    "Date": "2020-11-09T01:32:51Z",
    "Premium": {}
    },
    {
    "Country": "Nicaragua",
    "CountryCode": "NI",
    "Slug": "nicaragua",
    "NewConfirmed": 0,
    "TotalConfirmed": 5591,
    "NewDeaths": 0,
    "TotalDeaths": 157,
    "NewRecovered": 0,
    "TotalRecovered": 4225,
    "Date": "2020-11-09T01:32:51Z",
    "Premium": {}
    },
    {
    "Country": "Niger",
    "CountryCode": "NE",
    "Slug": "niger",
    "NewConfirmed": 12,
    "TotalConfirmed": 1242,
    "NewDeaths": 0,
    "TotalDeaths": 69,
    "NewRecovered": 0,
    "TotalRecovered": 1143,
    "Date": "2020-11-09T01:32:51Z",
    "Premium": {}
    },
    {
    "Country": "Nigeria",
    "CountryCode": "NG",
    "Slug": "nigeria",
    "NewConfirmed": 59,
    "TotalConfirmed": 63790,
    "NewDeaths": 0,
    "TotalDeaths": 1155,
    "NewRecovered": 40,
    "TotalRecovered": 59884,
    "Date": "2020-11-09T01:32:51Z",
    "Premium": {}
    },
    {
    "Country": "Norway",
    "CountryCode": "NO",
    "Slug": "norway",
    "NewConfirmed": 408,
    "TotalConfirmed": 24243,
    "NewDeaths": 0,
    "TotalDeaths": 285,
    "NewRecovered": 0,
    "TotalRecovered": 11863,
    "Date": "2020-11-09T01:32:51Z",
    "Premium": {}
    },
    {
    "Country": "Oman",
    "CountryCode": "OM",
    "Slug": "oman",
    "NewConfirmed": 0,
    "TotalConfirmed": 117167,
    "NewDeaths": 0,
    "TotalDeaths": 1286,
    "NewRecovered": 0,
    "TotalRecovered": 107368,
    "Date": "2020-11-09T01:32:51Z",
    "Premium": {}
    },
    {
    "Country": "Pakistan",
    "CountryCode": "PK",
    "Slug": "pakistan",
    "NewConfirmed": 1436,
    "TotalConfirmed": 343189,
    "NewDeaths": 25,
    "TotalDeaths": 6968,
    "NewRecovered": 519,
    "TotalRecovered": 318417,
    "Date": "2020-11-09T01:32:51Z",
    "Premium": {}
    },
    {
    "Country": "Palestinian Territory",
    "CountryCode": "PS",
    "Slug": "palestine",
    "NewConfirmed": 431,
    "TotalConfirmed": 57657,
    "NewDeaths": 1,
    "TotalDeaths": 512,
    "NewRecovered": 438,
    "TotalRecovered": 49975,
    "Date": "2020-11-09T01:32:51Z",
    "Premium": {}
    },
    {
    "Country": "Panama",
    "CountryCode": "PA",
    "Slug": "panama",
    "NewConfirmed": 746,
    "TotalConfirmed": 138506,
    "NewDeaths": 11,
    "TotalDeaths": 2781,
    "NewRecovered": 833,
    "TotalRecovered": 116823,
    "Date": "2020-11-09T01:32:51Z",
    "Premium": {}
    },
    {
    "Country": "Papua New Guinea",
    "CountryCode": "PG",
    "Slug": "papua-new-guinea",
    "NewConfirmed": 0,
    "TotalConfirmed": 597,
    "NewDeaths": 0,
    "TotalDeaths": 7,
    "NewRecovered": 0,
    "TotalRecovered": 580,
    "Date": "2020-11-09T01:32:51Z",
    "Premium": {}
    },
    {
    "Country": "Paraguay",
    "CountryCode": "PY",
    "Slug": "paraguay",
    "NewConfirmed": 460,
    "TotalConfirmed": 66941,
    "NewDeaths": 7,
    "TotalDeaths": 1479,
    "NewRecovered": 688,
    "TotalRecovered": 47154,
    "Date": "2020-11-09T01:32:51Z",
    "Premium": {}
    },
    {
    "Country": "Peru",
    "CountryCode": "PE",
    "Slug": "peru",
    "NewConfirmed": 2781,
    "TotalConfirmed": 917503,
    "NewDeaths": 53,
    "TotalDeaths": 34783,
    "NewRecovered": 518,
    "TotalRecovered": 838783,
    "Date": "2020-11-09T01:32:51Z",
    "Premium": {}
    },
    {
    "Country": "Philippines",
    "CountryCode": "PH",
    "Slug": "philippines",
    "NewConfirmed": 2152,
    "TotalConfirmed": 393961,
    "NewDeaths": 24,
    "TotalDeaths": 7485,
    "NewRecovered": 242,
    "TotalRecovered": 350216,
    "Date": "2020-11-09T01:32:51Z",
    "Premium": {}
    },
    {
    "Country": "Poland",
    "CountryCode": "PL",
    "Slug": "poland",
    "NewConfirmed": 27875,
    "TotalConfirmed": 521640,
    "NewDeaths": 349,
    "TotalDeaths": 7636,
    "NewRecovered": 11835,
    "TotalRecovered": 200510,
    "Date": "2020-11-09T01:32:51Z",
    "Premium": {}
    },
    {
    "Country": "Portugal",
    "CountryCode": "PT",
    "Slug": "portugal",
    "NewConfirmed": 6640,
    "TotalConfirmed": 173540,
    "NewDeaths": 56,
    "TotalDeaths": 2848,
    "NewRecovered": 3993,
    "TotalRecovered": 97747,
    "Date": "2020-11-09T01:32:51Z",
    "Premium": {}
    },
    {
    "Country": "Qatar",
    "CountryCode": "QA",
    "Slug": "qatar",
    "NewConfirmed": 202,
    "TotalConfirmed": 134013,
    "NewDeaths": 0,
    "TotalDeaths": 232,
    "NewRecovered": 194,
    "TotalRecovered": 131075,
    "Date": "2020-11-09T01:32:51Z",
    "Premium": {}
    },
    {
    "Country": "Republic of Kosovo",
    "CountryCode": "XK",
    "Slug": "kosovo",
    "NewConfirmed": 0,
    "TotalConfirmed": 22934,
    "NewDeaths": 0,
    "TotalDeaths": 732,
    "NewRecovered": 0,
    "TotalRecovered": 15981,
    "Date": "2020-11-09T01:32:51Z",
    "Premium": {}
    },
    {
    "Country": "Romania",
    "CountryCode": "RO",
    "Slug": "romania",
    "NewConfirmed": 9937,
    "TotalConfirmed": 296999,
    "NewDeaths": 130,
    "TotalDeaths": 7793,
    "NewRecovered": 5143,
    "TotalRecovered": 201114,
    "Date": "2020-11-09T01:32:51Z",
    "Premium": {}
    },
    {
    "Country": "Russian Federation",
    "CountryCode": "RU",
    "Slug": "russia",
    "NewConfirmed": 20109,
    "TotalConfirmed": 1740172,
    "NewDeaths": 356,
    "TotalDeaths": 30010,
    "NewRecovered": 16511,
    "TotalRecovered": 1304607,
    "Date": "2020-11-09T01:32:51Z",
    "Premium": {}
    },
    {
    "Country": "Rwanda",
    "CountryCode": "RW",
    "Slug": "rwanda",
    "NewConfirmed": 5,
    "TotalConfirmed": 5213,
    "NewDeaths": 0,
    "TotalDeaths": 36,
    "NewRecovered": 0,
    "TotalRecovered": 4953,
    "Date": "2020-11-09T01:32:51Z",
    "Premium": {}
    },
    {
    "Country": "Réunion",
    "CountryCode": "RE",
    "Slug": "réunion",
    "NewConfirmed": 0,
    "TotalConfirmed": 0,
    "NewDeaths": 0,
    "TotalDeaths": 0,
    "NewRecovered": 0,
    "TotalRecovered": 0,
    "Date": "2020-11-09T01:32:51Z",
    "Premium": {}
    },
    {
    "Country": "Saint Kitts and Nevis",
    "CountryCode": "KN",
    "Slug": "saint-kitts-and-nevis",
    "NewConfirmed": 0,
    "TotalConfirmed": 19,
    "NewDeaths": 0,
    "TotalDeaths": 0,
    "NewRecovered": 0,
    "TotalRecovered": 19,
    "Date": "2020-11-09T01:32:51Z",
    "Premium": {}
    },
    {
    "Country": "Saint Lucia",
    "CountryCode": "LC",
    "Slug": "saint-lucia",
    "NewConfirmed": 13,
    "TotalConfirmed": 123,
    "NewDeaths": 0,
    "TotalDeaths": 0,
    "NewRecovered": 0,
    "TotalRecovered": 32,
    "Date": "2020-11-09T01:32:51Z",
    "Premium": {}
    },
    {
    "Country": "Saint Vincent and Grenadines",
    "CountryCode": "VC",
    "Slug": "saint-vincent-and-the-grenadines",
    "NewConfirmed": 0,
    "TotalConfirmed": 76,
    "NewDeaths": 0,
    "TotalDeaths": 0,
    "NewRecovered": 1,
    "TotalRecovered": 72,
    "Date": "2020-11-09T01:32:51Z",
    "Premium": {}
    },
    {
    "Country": "San Marino",
    "CountryCode": "SM",
    "Slug": "san-marino",
    "NewConfirmed": 0,
    "TotalConfirmed": 1043,
    "NewDeaths": 0,
    "TotalDeaths": 42,
    "NewRecovered": 0,
    "TotalRecovered": 754,
    "Date": "2020-11-09T01:32:51Z",
    "Premium": {}
    },
    {
    "Country": "Sao Tome and Principe",
    "CountryCode": "ST",
    "Slug": "sao-tome-and-principe",
    "NewConfirmed": 2,
    "TotalConfirmed": 962,
    "NewDeaths": 0,
    "TotalDeaths": 16,
    "NewRecovered": 0,
    "TotalRecovered": 910,
    "Date": "2020-11-09T01:32:51Z",
    "Premium": {}
    },
    {
    "Country": "Saudi Arabia",
    "CountryCode": "SA",
    "Slug": "saudi-arabia",
    "NewConfirmed": 407,
    "TotalConfirmed": 350229,
    "NewDeaths": 19,
    "TotalDeaths": 5525,
    "NewRecovered": 433,
    "TotalRecovered": 336966,
    "Date": "2020-11-09T01:32:51Z",
    "Premium": {}
    },
    {
    "Country": "Senegal",
    "CountryCode": "SN",
    "Slug": "senegal",
    "NewConfirmed": 17,
    "TotalConfirmed": 15693,
    "NewDeaths": 0,
    "TotalDeaths": 326,
    "NewRecovered": 23,
    "TotalRecovered": 15317,
    "Date": "2020-11-09T01:32:51Z",
    "Premium": {}
    },
    {
    "Country": "Serbia",
    "CountryCode": "RS",
    "Slug": "serbia",
    "NewConfirmed": 2677,
    "TotalConfirmed": 60635,
    "NewDeaths": 9,
    "TotalDeaths": 880,
    "NewRecovered": 0,
    "TotalRecovered": 0,
    "Date": "2020-11-09T01:32:51Z",
    "Premium": {}
    },
    {
    "Country": "Seychelles",
    "CountryCode": "SC",
    "Slug": "seychelles",
    "NewConfirmed": 0,
    "TotalConfirmed": 158,
    "NewDeaths": 0,
    "TotalDeaths": 0,
    "NewRecovered": 0,
    "TotalRecovered": 155,
    "Date": "2020-11-09T01:32:51Z",
    "Premium": {}
    },
    {
    "Country": "Sierra Leone",
    "CountryCode": "SL",
    "Slug": "sierra-leone",
    "NewConfirmed": 8,
    "TotalConfirmed": 2381,
    "NewDeaths": 0,
    "TotalDeaths": 74,
    "NewRecovered": 5,
    "TotalRecovered": 1812,
    "Date": "2020-11-09T01:32:51Z",
    "Premium": {}
    },
    {
    "Country": "Singapore",
    "CountryCode": "SG",
    "Slug": "singapore",
    "NewConfirmed": 7,
    "TotalConfirmed": 58054,
    "NewDeaths": 0,
    "TotalDeaths": 28,
    "NewRecovered": 9,
    "TotalRecovered": 57968,
    "Date": "2020-11-09T01:32:51Z",
    "Premium": {}
    },
    {
    "Country": "Slovakia",
    "CountryCode": "SK",
    "Slug": "slovakia",
    "NewConfirmed": 2579,
    "TotalConfirmed": 73667,
    "NewDeaths": 34,
    "TotalDeaths": 351,
    "NewRecovered": 1364,
    "TotalRecovered": 18354,
    "Date": "2020-11-09T01:32:51Z",
    "Premium": {}
    },
    {
    "Country": "Slovenia",
    "CountryCode": "SI",
    "Slug": "slovenia",
    "NewConfirmed": 1612,
    "TotalConfirmed": 44270,
    "NewDeaths": 34,
    "TotalDeaths": 531,
    "NewRecovered": 1942,
    "TotalRecovered": 20767,
    "Date": "2020-11-09T01:32:51Z",
    "Premium": {}
    },
    {
    "Country": "Solomon Islands",
    "CountryCode": "SB",
    "Slug": "solomon-islands",
    "NewConfirmed": 0,
    "TotalConfirmed": 13,
    "NewDeaths": 0,
    "TotalDeaths": 0,
    "NewRecovered": 0,
    "TotalRecovered": 4,
    "Date": "2020-11-09T01:32:51Z",
    "Premium": {}
    },
    {
    "Country": "Somalia",
    "CountryCode": "SO",
    "Slug": "somalia",
    "NewConfirmed": 0,
    "TotalConfirmed": 4229,
    "NewDeaths": 0,
    "TotalDeaths": 107,
    "NewRecovered": 0,
    "TotalRecovered": 3247,
    "Date": "2020-11-09T01:32:51Z",
    "Premium": {}
    },
    {
    "Country": "South Africa",
    "CountryCode": "ZA",
    "Slug": "south-africa",
    "NewConfirmed": 1731,
    "TotalConfirmed": 735906,
    "NewDeaths": 40,
    "TotalDeaths": 19789,
    "NewRecovered": 3145,
    "TotalRecovered": 678738,
    "Date": "2020-11-09T01:32:51Z",
    "Premium": {}
    },
    {
    "Country": "South Sudan",
    "CountryCode": "SS",
    "Slug": "south-sudan",
    "NewConfirmed": 0,
    "TotalConfirmed": 2943,
    "NewDeaths": 0,
    "TotalDeaths": 59,
    "NewRecovered": 0,
    "TotalRecovered": 1290,
    "Date": "2020-11-09T01:32:51Z",
    "Premium": {}
    },
    {
    "Country": "Spain",
    "CountryCode": "ES",
    "Slug": "spain",
    "NewConfirmed": 0,
    "TotalConfirmed": 1328832,
    "NewDeaths": 0,
    "TotalDeaths": 38833,
    "NewRecovered": 0,
    "TotalRecovered": 150376,
    "Date": "2020-11-09T01:32:51Z",
    "Premium": {}
    },
    {
    "Country": "Sri Lanka",
    "CountryCode": "LK",
    "Slug": "sri-lanka",
    "NewConfirmed": 449,
    "TotalConfirmed": 13419,
    "NewDeaths": 4,
    "TotalDeaths": 34,
    "NewRecovered": 537,
    "TotalRecovered": 7723,
    "Date": "2020-11-09T01:32:51Z",
    "Premium": {}
    },
    {
    "Country": "Sudan",
    "CountryCode": "SD",
    "Slug": "sudan",
    "NewConfirmed": 0,
    "TotalConfirmed": 13943,
    "NewDeaths": 0,
    "TotalDeaths": 837,
    "NewRecovered": 0,
    "TotalRecovered": 6764,
    "Date": "2020-11-09T01:32:51Z",
    "Premium": {}
    },
    {
    "Country": "Suriname",
    "CountryCode": "SR",
    "Slug": "suriname",
    "NewConfirmed": 7,
    "TotalConfirmed": 5234,
    "NewDeaths": 1,
    "TotalDeaths": 113,
    "NewRecovered": 3,
    "TotalRecovered": 5105,
    "Date": "2020-11-09T01:32:51Z",
    "Premium": {}
    },
    {
    "Country": "Swaziland",
    "CountryCode": "SZ",
    "Slug": "swaziland",
    "NewConfirmed": 13,
    "TotalConfirmed": 5989,
    "NewDeaths": 0,
    "TotalDeaths": 117,
    "NewRecovered": 15,
    "TotalRecovered": 5719,
    "Date": "2020-11-09T01:32:51Z",
    "Premium": {}
    },
    {
    "Country": "Sweden",
    "CountryCode": "SE",
    "Slug": "sweden",
    "NewConfirmed": 0,
    "TotalConfirmed": 146461,
    "NewDeaths": 0,
    "TotalDeaths": 6022,
    "NewRecovered": 0,
    "TotalRecovered": 0,
    "Date": "2020-11-09T01:32:51Z",
    "Premium": {}
    },
    {
    "Country": "Switzerland",
    "CountryCode": "CH",
    "Slug": "switzerland",
    "NewConfirmed": 0,
    "TotalConfirmed": 211913,
    "NewDeaths": 39,
    "TotalDeaths": 2749,
    "NewRecovered": 0,
    "TotalRecovered": 87300,
    "Date": "2020-11-09T01:32:51Z",
    "Premium": {}
    },
    {
    "Country": "Syrian Arab Republic (Syria)",
    "CountryCode": "SY",
    "Slug": "syria",
    "NewConfirmed": 45,
    "TotalConfirmed": 6147,
    "NewDeaths": 4,
    "TotalDeaths": 313,
    "NewRecovered": 48,
    "TotalRecovered": 2302,
    "Date": "2020-11-09T01:32:51Z",
    "Premium": {}
    },
    {
    "Country": "Taiwan, Republic of China",
    "CountryCode": "TW",
    "Slug": "taiwan",
    "NewConfirmed": 0,
    "TotalConfirmed": 573,
    "NewDeaths": 0,
    "TotalDeaths": 7,
    "NewRecovered": 0,
    "TotalRecovered": 523,
    "Date": "2020-11-09T01:32:51Z",
    "Premium": {}
    },
    {
    "Country": "Tajikistan",
    "CountryCode": "TJ",
    "Slug": "tajikistan",
    "NewConfirmed": 38,
    "TotalConfirmed": 11294,
    "NewDeaths": 0,
    "TotalDeaths": 83,
    "NewRecovered": 48,
    "TotalRecovered": 10594,
    "Date": "2020-11-09T01:32:51Z",
    "Premium": {}
    },
    {
    "Country": "Tanzania, United Republic of",
    "CountryCode": "TZ",
    "Slug": "tanzania",
    "NewConfirmed": 0,
    "TotalConfirmed": 509,
    "NewDeaths": 0,
    "TotalDeaths": 21,
    "NewRecovered": 0,
    "TotalRecovered": 183,
    "Date": "2020-11-09T01:32:51Z",
    "Premium": {}
    },
    {
    "Country": "Thailand",
    "CountryCode": "TH",
    "Slug": "thailand",
    "NewConfirmed": 7,
    "TotalConfirmed": 3837,
    "NewDeaths": 0,
    "TotalDeaths": 60,
    "NewRecovered": 10,
    "TotalRecovered": 3654,
    "Date": "2020-11-09T01:32:51Z",
    "Premium": {}
    },
    {
    "Country": "Timor-Leste",
    "CountryCode": "TL",
    "Slug": "timor-leste",
    "NewConfirmed": 0,
    "TotalConfirmed": 30,
    "NewDeaths": 0,
    "TotalDeaths": 0,
    "NewRecovered": 0,
    "TotalRecovered": 29,
    "Date": "2020-11-09T01:32:51Z",
    "Premium": {}
    },
    {
    "Country": "Togo",
    "CountryCode": "TG",
    "Slug": "togo",
    "NewConfirmed": 23,
    "TotalConfirmed": 2483,
    "NewDeaths": 0,
    "TotalDeaths": 57,
    "NewRecovered": 7,
    "TotalRecovered": 1727,
    "Date": "2020-11-09T01:32:51Z",
    "Premium": {}
    },
    {
    "Country": "Trinidad and Tobago",
    "CountryCode": "TT",
    "Slug": "trinidad-and-tobago",
    "NewConfirmed": 40,
    "TotalConfirmed": 5838,
    "NewDeaths": 0,
    "TotalDeaths": 111,
    "NewRecovered": 43,
    "TotalRecovered": 5127,
    "Date": "2020-11-09T01:32:51Z",
    "Premium": {}
    },
    {
    "Country": "Tunisia",
    "CountryCode": "TN",
    "Slug": "tunisia",
    "NewConfirmed": 3209,
    "TotalConfirmed": 69543,
    "NewDeaths": 217,
    "TotalDeaths": 1794,
    "NewRecovered": 10689,
    "TotalRecovered": 47416,
    "Date": "2020-11-09T01:32:51Z",
    "Premium": {}
    },
    {
    "Country": "Turkey",
    "CountryCode": "TR",
    "Slug": "turkey",
    "NewConfirmed": 2483,
    "TotalConfirmed": 391739,
    "NewDeaths": 81,
    "TotalDeaths": 10803,
    "NewRecovered": 1928,
    "TotalRecovered": 336221,
    "Date": "2020-11-09T01:32:51Z",
    "Premium": {}
    },
    {
    "Country": "Uganda",
    "CountryCode": "UG",
    "Slug": "uganda",
    "NewConfirmed": 214,
    "TotalConfirmed": 14066,
    "NewDeaths": 0,
    "TotalDeaths": 131,
    "NewRecovered": 26,
    "TotalRecovered": 7753,
    "Date": "2020-11-09T01:32:51Z",
    "Premium": {}
    },
    {
    "Country": "Ukraine",
    "CountryCode": "UA",
    "Slug": "ukraine",
    "NewConfirmed": 11033,
    "TotalConfirmed": 464598,
    "NewDeaths": 195,
    "TotalDeaths": 8553,
    "NewRecovered": 8977,
    "TotalRecovered": 212549,
    "Date": "2020-11-09T01:32:51Z",
    "Premium": {}
    },
    {
    "Country": "United Arab Emirates",
    "CountryCode": "AE",
    "Slug": "united-arab-emirates",
    "NewConfirmed": 1141,
    "TotalConfirmed": 141032,
    "NewDeaths": 4,
    "TotalDeaths": 514,
    "NewRecovered": 672,
    "TotalRecovered": 137608,
    "Date": "2020-11-09T01:32:51Z",
    "Premium": {}
    },
    {
    "Country": "United Kingdom",
    "CountryCode": "GB",
    "Slug": "united-kingdom",
    "NewConfirmed": 24979,
    "TotalConfirmed": 1174770,
    "NewDeaths": 413,
    "TotalDeaths": 48978,
    "NewRecovered": 14,
    "TotalRecovered": 2965,
    "Date": "2020-11-09T01:32:51Z",
    "Premium": {}
    },
    {
    "Country": "United States of America",
    "CountryCode": "US",
    "Slug": "united-states",
    "NewConfirmed": 126742,
    "TotalConfirmed": 9860558,
    "NewDeaths": 1040,
    "TotalDeaths": 237113,
    "NewRecovered": 40674,
    "TotalRecovered": 3851465,
    "Date": "2020-11-09T01:32:51Z",
    "Premium": {}
    },
    {
    "Country": "Uruguay",
    "CountryCode": "UY",
    "Slug": "uruguay",
    "NewConfirmed": 71,
    "TotalConfirmed": 3441,
    "NewDeaths": 0,
    "TotalDeaths": 61,
    "NewRecovered": 50,
    "TotalRecovered": 2903,
    "Date": "2020-11-09T01:32:51Z",
    "Premium": {}
    },
    {
    "Country": "Uzbekistan",
    "CountryCode": "UZ",
    "Slug": "uzbekistan",
    "NewConfirmed": 228,
    "TotalConfirmed": 68367,
    "NewDeaths": 2,
    "TotalDeaths": 581,
    "NewRecovered": 217,
    "TotalRecovered": 65550,
    "Date": "2020-11-09T01:32:51Z",
    "Premium": {}
    },
    {
    "Country": "Venezuela (Bolivarian Republic)",
    "CountryCode": "VE",
    "Slug": "venezuela",
    "NewConfirmed": 393,
    "TotalConfirmed": 94698,
    "NewDeaths": 3,
    "TotalDeaths": 824,
    "NewRecovered": 403,
    "TotalRecovered": 89502,
    "Date": "2020-11-09T01:32:51Z",
    "Premium": {}
    },
    {
    "Country": "Viet Nam",
    "CountryCode": "VN",
    "Slug": "vietnam",
    "NewConfirmed": 1,
    "TotalConfirmed": 1213,
    "NewDeaths": 0,
    "TotalDeaths": 35,
    "NewRecovered": 0,
    "TotalRecovered": 1070,
    "Date": "2020-11-09T01:32:51Z",
    "Premium": {}
    },
    {
    "Country": "Western Sahara",
    "CountryCode": "EH",
    "Slug": "western-sahara",
    "NewConfirmed": 0,
    "TotalConfirmed": 10,
    "NewDeaths": 0,
    "TotalDeaths": 1,
    "NewRecovered": 0,
    "TotalRecovered": 8,
    "Date": "2020-11-09T01:32:51Z",
    "Premium": {}
    },
    {
    "Country": "Yemen",
    "CountryCode": "YE",
    "Slug": "yemen",
    "NewConfirmed": 3,
    "TotalConfirmed": 2070,
    "NewDeaths": 0,
    "TotalDeaths": 602,
    "NewRecovered": 0,
    "TotalRecovered": 1375,
    "Date": "2020-11-09T01:32:51Z",
    "Premium": {}
    },
    {
    "Country": "Zambia",
    "CountryCode": "ZM",
    "Slug": "zambia",
    "NewConfirmed": 89,
    "TotalConfirmed": 16908,
    "NewDeaths": 0,
    "TotalDeaths": 349,
    "NewRecovered": 11,
    "TotalRecovered": 15873,
    "Date": "2020-11-09T01:32:51Z",
    "Premium": {}
    },
    {
    "Country": "Zimbabwe",
    "CountryCode": "ZW",
    "Slug": "zimbabwe",
    "NewConfirmed": 27,
    "TotalConfirmed": 8498,
    "NewDeaths": 1,
    "TotalDeaths": 251,
    "NewRecovered": 12,
    "TotalRecovered": 7995,
    "Date": "2020-11-09T01:32:51Z",
    "Premium": {}
    }
    ],
    "Date": "2020-11-09T01:32:51Z"
    }